Archaeological Science with R
…
In the example below, the extract_tables() function returns a list with one item. If a page has multiple tables, or text and tables, this list would have additional items. In the example below, the list item is a character matrix, which is the table that we want to work with. We can coerce the matrix to a data frame with as_data_frame() from the dplyr package, and then the table is nearly ready to work with in R. There are a few additional steps of cleaning to do before we can work with this table, such as moving the first and second rows out of the table and into the column headings, and coercing the measurement columns from character class to numeric class so they are suitable for numerical operations. We will investigate how to do these tasks when we discuss cleaning data in Chapter X.

library(tabulizer) # load the libraries
library(dplyr)

# read in the table from the PDF file
table_from_pdf <- extract_tables("data/Terry_et_al_2000_[P].pdf", 
                                 pages = 9)

# inspect the output of extract_tables(), here we acces the first item in the list
# and coerce to a data frame
as_data_frame(table_from_pdf[[1]])

## # A tibble: 39 x 6
##    V1     V2        V3      V4      V5    V6          
##    <chr>  <chr>     <chr>   <chr>   <chr> <chr>       
##  1 ""     Mehlich P Olsen P Total P ""    Ring Test   
##  2 Sample (mg/kg)   (mg/kg) (mg/kg) ""    Rating (1–5)
##  3 O15-1  17.3      6.5     1762    ""    2           
##  4 10G-1  18.3      6.5     1627    ""    2           
##  5 N9-10  18.9      9.4     1496    ""    3           
##  6 10H-1  20.6      4.5     1657    ""    4           
##  7 10D-4  22.0      7.0     1143    ""    3           
##  8 N9-12  23.0      10.0    1103    ""    4           
##  9 N9-8   23.0      17.0    1678    ""    4           
## 10 O17-2  23.1      15.4    1851    ""    3           
## # ... with 29 more rows
…
